com\squareman\profile\dto\ShipAloneLineItem.class
com\squareman\profile\mapper\ShipAloneMapperImpl.class
com\squareman\profile\logging\LoggerConstants.class
com\squareman\profile\mapper\impl\ShipAloneMapperImpl.class
com\squareman\profile\constants\ResponsePreparer.class
com\squareman\profile\mapper\impl\UserProfileMapperImpl.class
com\squareman\profile\constants\StringUtil.class
com\squareman\profile\mapper\ShipAloneMapper.class
com\squareman\profile\repository\UserRepository.class
com\squareman\profile\controller\UserProfileController.class
com\squareman\profile\exceptions\ErrorCodeIF.class
com\squareman\profile\constants\Constants.class
com\squareman\profile\exceptions\ExceptionControllerAdvice.class
com\squareman\profile\entity\User.class
com\squareman\profile\mapper\UserProfileMapperImpl.class
com\squareman\profile\service\ShipAloneService.class
com\squareman\profile\service\UserProfileService.class
com\squareman\profile\entity\PflInvOptEligblity.class
com\squareman\profile\exceptions\Error.class
com\squareman\profile\exceptions\SystemException.class
com\squareman\profile\dto\UserDto.class
com\squareman\profile\service\impl\ShipAloneServiceImpl.class
com\squareman\profile\mapper\UserProfileMapper.class
com\squareman\profile\constants\ProfileConstants.class
com\squareman\profile\exceptions\ErrorResponse.class
com\squareman\profile\SmsProfileServiceApplication.class
com\squareman\profile\logging\LoggerService.class
com\squareman\profile\logging\LoggerServiceIF.class
com\squareman\profile\dto\ShipAloneRequest.class
com\squareman\profile\logging\LoggerWebFilter.class
com\squareman\profile\exceptions\CommonErrorCodes.class
com\squareman\profile\exceptions\BusinessException.class
com\squareman\profile\repository\ShipAloneRepository.class
com\squareman\profile\service\impl\UserProfileServiceImpl.class
com\squareman\profile\exceptions\ErrorApiResponses.class
com\squareman\profile\validator\UserProfileRequestValidator.class
